<svg width="155" height="183" viewBox="0 0 155 183" fill="none" xmlns="http://www.w3.org/2000/svg">
<rect x="30.5" y="10.5" width="122" height="156" stroke="#2F3F5C" stroke-width="5"/>
<line x1="93" y1="4.37114e-08" x2="93" y2="183" stroke="#2F3F5C" stroke-width="2"/>
<line x1="1" y1="30" x2="1.00001" y2="149" stroke="#2F3F5C" stroke-width="2"/>
<line x1="71" y1="141" x2="71" y2="169" stroke="#2F3F5C" stroke-width="2"/>
<line x1="113" y1="141" x2="113" y2="169" stroke="#2F3F5C" stroke-width="2"/>
<line x1="92" y1="31" y2="31" stroke="#2F3F5C" stroke-width="2"/>
<line x1="92" y1="149" y2="149" stroke="#2F3F5C" stroke-width="2"/>
<rect x="56" y="31" width="71" height="117" rx="35.5" stroke="#2F3F5C" stroke-width="2"/>
</svg>
