<svg width="193" height="193" viewBox="0 0 193 193" fill="none" xmlns="http://www.w3.org/2000/svg">
<path d="M96.4997 176.917C140.913 176.917 176.916 140.913 176.916 96.5002C176.916 52.0873 140.913 16.0835 96.4997 16.0835C52.0868 16.0835 16.083 52.0873 16.083 96.5002C16.083 140.913 52.0868 176.917 96.4997 176.917Z" stroke="white" stroke-width="10" stroke-linecap="round" stroke-linejoin="round"/>
<path d="M120.625 72.375L72.375 120.625" stroke="white" stroke-width="10" stroke-linecap="round" stroke-linejoin="round"/>
<path d="M72.375 72.375L120.625 120.625" stroke="white" stroke-width="10" stroke-linecap="round" stroke-linejoin="round"/>
</svg>
