<svg version="1.1" id="Layer_1" xmlns="http://www.w3.org/2000/svg" xmlns:xlink="http://www.w3.org/1999/xlink" x="0px" y="0px"
	 width="100%" viewBox="0 0 2713 2564" enable-background="new 0 0 2713 2564" xml:space="preserve">
<path fill="#0077C0" opacity="1.000000" stroke="none" 
	d="
M2714.345703,368.177277 
	C2712.307861,399.639496 2698.671875,426.406769 2679.652588,450.542511 
	C2670.234131,462.494171 2658.938232,472.968475 2648.460693,484.081543 
	C2646.175781,486.504974 2643.754883,488.800507 2641.398682,491.156708 
	C1966.562378,1165.992432 1291.735352,1840.837524 616.853943,2515.628418 
	C592.785034,2539.694092 564.022522,2555.714600 530.714783,2563.264648 
	C527.491150,2563.995117 524.154114,2564.224854 520.434814,2565.343750 
	C505.291504,2566.000000 490.583008,2566.000000 474.937256,2566.000000 
	C461.950500,2562.617188 449.456299,2560.333008 437.926483,2555.666504 
	C380.163971,2532.287842 344.020538,2490.435547 333.796234,2428.391357 
	C325.578613,2378.523926 337.200806,2333.305908 369.874786,2294.102539 
	C372.425018,2291.042969 375.258240,2288.206787 378.078857,2285.385986 
	C602.659058,2060.783447 827.254700,1836.196411 1051.825928,1611.584961 
	C1058.644409,1604.765503 1065.219360,1597.702515 1072.533936,1590.102783 
	C1070.767700,1587.600220 1069.335938,1585.098877 1067.463745,1582.988037 
	C1021.857361,1531.570312 1012.906677,1473.015869 1034.632202,1409.129883 
	C1041.770874,1388.138184 1054.667603,1370.006226 1070.335571,1354.319580 
	C1227.195801,1197.270752 1384.106201,1040.271484 1541.208130,883.464233 
	C1574.198975,850.535339 1607.788818,818.195129 1641.522461,786.023987 
	C1720.975830,710.251038 1803.365234,637.813416 1889.679321,569.919983 
	C1944.089233,527.121887 1999.767700,486.028656 2056.703613,446.625793 
	C2141.607422,387.867554 2229.409180,333.795380 2319.072266,282.651764 
	C2380.745361,247.473419 2444.715820,217.178360 2510.943848,191.738953 
	C2558.575684,173.442703 2603.283203,182.016846 2644.405273,210.333710 
	C2681.655762,235.984451 2705.285156,271.092072 2712.888184,316.217224 
	C2713.549316,320.141541 2713.704102,324.151184 2714.098633,329.794830 
	C2714.735596,334.979004 2715.367676,338.489502 2716.000000,342.000000 
	C2716.000000,346.083344 2716.000000,350.166656 2715.369385,355.607422 
	C2714.607910,360.702332 2714.476807,364.439819 2714.345703,368.177277 
z"/>
<path fill="#0077C0" opacity="1.000000" stroke="none" 
	d="
M443.083862,1.999999 
	C448.416351,3.963689 453.214355,5.360462 457.163208,8.018623 
	C463.744812,12.449011 470.372101,17.096373 475.962006,22.672964 
	C576.932983,123.403595 677.707825,224.330780 778.627258,325.113129 
	C810.916565,357.358551 843.642151,389.167267 875.912109,421.431824 
	C907.003723,452.518127 937.824158,483.876587 968.651550,515.225769 
	C992.485413,539.463074 1015.145691,564.649231 1032.649292,594.074402 
	C1053.490723,629.110657 1067.257690,666.632690 1072.158081,707.123474 
	C1077.151123,748.380920 1075.247437,789.454163 1065.542480,829.914734 
	C1062.950684,840.720093 1065.770264,848.488892 1073.270020,855.906128 
	C1123.248535,905.334839 1173.076538,954.915527 1223.020264,1004.379456 
	C1226.490112,1007.816040 1230.497681,1010.709595 1234.133423,1013.753662 
	C1230.629395,1020.456665 1013.314514,1238.738037 1002.385071,1246.597900 
	C999.894592,1244.220337 997.241699,1241.787231 994.698181,1239.244629 
	C941.435059,1186.001709 887.984863,1132.942993 835.099976,1079.326904 
	C824.558716,1068.639771 813.770630,1066.339111 800.099060,1070.708740 
	C795.562805,1072.158569 790.332031,1071.399780 785.424072,1071.729614 
	C776.157104,1072.352417 766.895325,1073.579834 757.629028,1073.603027 
	C674.946045,1073.810181 602.582458,1046.835327 541.407654,990.821533 
	C532.575256,982.734253 523.924072,974.434692 515.454224,965.968140 
	C352.835846,803.412842 190.303833,640.771179 27.562891,478.338776 
	C16.985447,467.781403 8.672791,456.197174 2.703890,442.159882 
	C2.000000,435.277435 2.000000,428.554840 2.613639,420.560242 
	C5.117951,415.072723 6.713354,410.693146 8.949334,406.669525 
	C19.838701,387.074463 36.112988,375.973785 59.009262,376.387207 
	C75.120911,376.678162 88.335701,383.736938 99.618004,395.023651 
	C252.087158,547.551575 404.585449,700.050476 557.136658,852.496338 
	C562.062378,857.418701 567.326294,862.117188 572.958313,866.193481 
	C583.659180,873.938354 598.899902,873.507568 609.432495,865.768921 
	C621.288147,857.058105 626.267578,842.882446 622.228699,829.703979 
	C619.901489,822.110046 614.989624,816.394897 609.507385,810.914978 
	C456.977692,658.447571 304.485657,505.942474 151.987503,353.443512 
	C150.101913,351.557892 147.840439,349.920197 146.399933,347.740204 
	C140.931061,339.463959 134.061386,331.616028 130.759705,322.504761 
	C123.005013,301.105072 132.309006,273.919769 150.193649,262.062012 
	C171.800217,247.736526 199.194931,247.492249 217.011673,263.429840 
	C220.478989,266.531433 224.048203,269.535614 227.334412,272.820801 
	C380.327637,425.767548 533.294495,578.740662 686.265564,731.709534 
	C688.386719,733.830688 690.376709,736.113770 692.679504,738.016907 
	C699.777100,743.882629 707.755310,748.484070 717.175781,747.481689 
	C730.259521,746.089417 740.371033,739.535278 745.654480,726.995422 
	C750.773499,714.845703 749.051636,703.483032 740.592163,693.367432 
	C736.329468,688.270264 731.830566,683.341248 727.132812,678.641602 
	C576.080383,527.525269 424.976929,376.460022 273.967255,225.301010 
	C269.062592,220.391525 264.372864,214.997574 260.798279,209.093628 
	C255.694855,200.664658 251.941711,191.751541 252.066299,181.228058 
	C252.181793,171.472946 256.094177,163.267227 259.919708,155.012604 
	C268.461243,136.581970 294.421448,123.495338 316.007568,127.338799 
	C331.449829,130.088333 342.859314,138.352921 353.326843,148.814896 
	C476.159790,271.582458 598.948364,394.394409 721.748535,517.194702 
	C751.682495,547.128784 781.520264,577.160339 811.646545,606.899536 
	C816.545471,611.735596 822.283813,616.142578 828.398804,619.236816 
	C840.734131,625.478577 852.567444,622.629700 862.415100,613.658020 
	C871.861877,605.051514 876.052246,594.254578 872.184753,581.230652 
	C869.922119,573.611206 865.293274,567.771606 859.779297,562.260864 
	C706.763977,409.336304 553.788757,256.371582 400.894867,103.325562 
	C395.756256,98.181854 390.927338,92.517326 386.981720,86.429535 
	C369.133942,58.891773 377.792206,16.993256 415.164764,5.135577 
	C417.536072,4.383201 419.725800,3.058467 422.000000,2.000004 
	C428.722565,2.000000 435.445160,2.000000 443.083862,1.999999 
z"/>
<path fill="#0077C0" opacity="1.000000" stroke="none" 
	d="
M2716.000000,341.143066 
	C2715.367676,338.489502 2714.735596,334.979004 2714.241211,330.649902 
	C2714.379150,329.831360 2715.206543,329.752136 2715.603271,329.876068 
	C2716.000000,333.428711 2716.000000,336.857422 2716.000000,341.143066 
z"/>
<path fill="#0077C0" opacity="1.000000" stroke="none" 
	d="
M2714.766846,368.204041 
	C2714.476807,364.439819 2714.607910,360.702332 2715.369385,356.482422 
	C2716.000000,359.428711 2716.000000,362.857422 2716.000000,367.143066 
	C2716.000000,368.000000 2715.187988,368.230835 2714.766846,368.204041 
z"/>
<path fill="#0077C0" opacity="1.000000" stroke="none" 
	d="
M1721.271118,1583.270874 
	C1735.133423,1569.306274 1748.495972,1555.841797 1761.315186,1542.924927 
	C1769.680908,1550.567017 1777.531128,1557.545288 1785.142090,1564.775146 
	C1788.746704,1568.199097 1791.748657,1572.249634 1795.269043,1575.770874 
	C2024.539185,1805.086548 2253.853271,2034.358032 2483.099854,2263.697266 
	C2507.395752,2288.002930 2524.478760,2316.528076 2530.981201,2350.634766 
	C2534.159424,2367.305664 2534.184082,2384.039062 2532.394531,2401.083740 
	C2530.781982,2416.443848 2528.192627,2431.344971 2522.884277,2445.736572 
	C2512.606934,2473.599854 2495.743896,2496.644775 2471.588135,2514.144287 
	C2444.393311,2533.845215 2414.344482,2546.437256 2380.758545,2549.641357 
	C2339.668213,2553.561035 2303.310547,2540.881104 2270.495361,2516.893799 
	C2263.272949,2511.614502 2256.387451,2505.718994 2250.059082,2499.394531 
	C2014.330933,2263.811768 1778.689697,2028.141724 1543.009888,1792.510376 
	C1538.115967,1787.617432 1532.907349,1783.039185 1527.009521,1777.533569 
	C1591.815430,1712.727417 1656.293335,1648.249268 1721.271118,1583.270874 
z"/>
</svg>