<svg width="27" height="27" viewBox="0 0 27 27" fill="none" xmlns="http://www.w3.org/2000/svg">
<path d="M26.7065 13.5C26.7065 20.9558 20.7281 27 13.3533 27C5.97846 27 0 20.9558 0 13.5C0 6.04416 5.97846 0 13.3533 0C20.7281 0 26.7065 6.04416 26.7065 13.5Z" fill="#0077C0"/>
<path d="M13.5474 21.1673C9.95027 21.1673 7.02271 18.2206 7.00885 14.5927C6.9822 14.2656 6.87772 11.8807 9.21678 9.922C9.70293 9.51519 10.4418 8.79413 10.7872 8.33997C11.5292 7.36493 12.0463 6.28764 12.0761 5.66021C12.0932 5.39546 12.2488 5.17699 12.4727 5.09305C12.6156 5.03924 12.9002 4.99619 13.2041 5.30829L13.2265 5.32982C14.0164 6.07778 15.3491 7.86859 15.4056 11.461C15.4163 12.1702 15.8427 12.4511 16.2372 12.478C16.7809 12.5146 17.4334 12.1035 17.5805 11.1144C17.6423 10.6979 17.9206 10.558 18.0368 10.5171C18.4408 10.3762 18.8086 10.67 18.9472 10.8034L18.9867 10.8411L19.0176 10.8852C20.0731 12.4005 20.0848 14.4819 20.0848 14.5701C20.0848 18.2088 17.1519 21.1705 13.5463 21.1705L13.5474 21.1673ZM12.9514 6.6288C12.6731 7.44995 12.1369 8.33351 11.6337 8.99538C11.2232 9.53564 10.4322 10.303 9.89803 10.7507C7.89267 12.4296 8.06431 14.427 8.07284 14.511L8.07604 14.5669C8.07604 17.6126 10.5302 20.0911 13.5484 20.0911C16.5666 20.0911 19.0208 17.6137 19.0208 14.5669C19.0208 14.5518 19.0091 13.1743 18.4408 12.0055C18.0037 13.0936 17.0378 13.608 16.1679 13.5499C15.1103 13.4789 14.3597 12.6265 14.3416 11.4771C14.3011 8.91467 13.5431 7.41335 12.9535 6.6288H12.9514Z" fill="white"/>
<path d="M13.2509 19.0154C12.6688 19.0154 12.1069 18.8238 11.6442 18.4633C11.0984 18.0382 10.7572 17.4291 10.6837 16.7457C10.6634 16.6015 10.5813 15.8599 10.9609 15.1227C11.0557 14.9376 11.3073 14.4598 11.4353 14.2499C11.527 14.0993 11.6314 13.9325 11.7359 13.7667C11.8617 13.5655 11.9929 13.3588 12.0899 13.1942C12.3255 12.7863 12.4182 12.698 12.4534 12.6647C12.7701 12.3666 13.0515 12.4193 13.1912 12.4763C13.592 12.641 13.6112 13.0618 13.6336 13.5483C13.6539 13.9841 13.6816 14.5814 13.8927 15.1518C13.9193 15.2228 13.9716 15.3046 14.0633 15.2928C14.1038 15.2874 14.1976 15.2562 14.2157 15.0808C14.2562 14.6718 14.5441 14.5416 14.6304 14.5125C14.8735 14.4297 15.14 14.5104 15.3447 14.7299L15.3575 14.745C15.8106 15.2702 15.8245 15.9902 15.817 16.2C15.8757 16.8727 15.6774 17.5291 15.2552 18.0554C14.8245 18.5924 14.2125 18.9271 13.5313 18.9992C13.4374 19.0089 13.3436 19.0143 13.2498 19.0143L13.2509 19.0154ZM12.6251 14.3619C12.528 14.5168 12.43 14.6718 12.3447 14.8139C12.2477 14.9742 12.0248 15.3918 11.9076 15.62C11.6688 16.0838 11.7391 16.5907 11.7402 16.5961L11.7434 16.6219C11.7839 17.0136 11.9801 17.3656 12.2967 17.612C12.6155 17.8606 13.0153 17.9736 13.4215 17.9306C13.8191 17.8886 14.1763 17.6927 14.4279 17.3796C14.6795 17.0664 14.7957 16.6725 14.753 16.2711L14.7477 16.2237L14.7509 16.1764C14.7509 16.1667 14.7509 16.1548 14.7509 16.1419C14.592 16.2571 14.4055 16.3335 14.1987 16.3604C13.6293 16.4357 13.1037 16.101 12.8916 15.5285C12.7413 15.1238 12.6645 14.7202 12.6219 14.3608L12.6251 14.3619Z" fill="white"/>
</svg>
