<svg width="28" height="27" viewBox="0 0 28 27" fill="none" xmlns="http://www.w3.org/2000/svg">
<ellipse cx="13.6957" cy="13.5" rx="13.6957" ry="13.5" fill="#0077C0"/>
<path d="M21.771 14.2066C20.4186 10.0249 17.1477 6.60927 13.0204 5.07127C12.4423 4.85512 11.7834 5.14728 11.5514 5.7221L9.44852 10.937L9.45208 10.9346L6.06101 19.3431C5.93731 19.6507 6.00511 20.0035 6.23348 20.2434C6.39643 20.4144 6.62005 20.507 6.84961 20.507C6.94238 20.507 7.03516 20.4916 7.12556 20.4607L21.049 15.6508C21.5284 15.4857 21.8317 15.0272 21.8257 14.5439C21.8257 14.4311 21.8079 14.317 21.771 14.2054V14.2066ZM15.6169 10.2909C15.1399 8.9691 13.8649 8.06294 12.4435 8.06294C12.2508 8.06294 12.0593 8.07956 11.8726 8.11044L12.641 6.20428C16.3984 7.61757 19.3779 10.7268 20.6244 14.5344L18.5964 15.2351C18.4145 14.703 18.0683 14.2327 17.6068 13.9014C17.7222 13.5961 17.7829 13.2695 17.7829 12.9406C17.7829 11.6484 16.8658 10.5439 15.6169 10.2898V10.2909ZM9.45446 14.108C9.5853 14.5356 9.98376 14.8467 10.4536 14.8467C11.0293 14.8467 11.4979 14.3788 11.4979 13.804C11.4979 13.2292 11.0293 12.7612 10.4536 12.7612C10.268 12.7612 10.0944 12.8099 9.94332 12.8942L11.2767 9.58786C11.6252 9.36696 12.0248 9.25057 12.4423 9.25057C13.4081 9.25057 14.2705 9.89665 14.5381 10.8218C14.6332 11.1508 14.9175 11.3919 15.2601 11.4346C16.0201 11.5285 16.5922 12.1769 16.5922 12.9418C16.5922 13.1912 16.534 13.4287 16.4174 13.6484C16.2057 14.0498 16.3579 14.5522 16.7576 14.7707C17.1001 14.9572 17.3523 15.2695 17.4724 15.6306L7.44432 19.0937L9.45565 14.1068L9.45446 14.108ZM10.1229 13.804C10.1229 13.6223 10.2716 13.4738 10.4536 13.4738C10.6356 13.4738 10.7842 13.6223 10.7842 13.804C10.7842 13.9857 10.6356 14.1341 10.4536 14.1341C10.2716 14.1341 10.1229 13.9857 10.1229 13.804Z" fill="white"/>
<path d="M9.766 16.021C9.19032 16.021 8.72168 16.4889 8.72168 17.0637C8.72168 17.6386 9.19032 18.1065 9.766 18.1065C10.3417 18.1065 10.8103 17.6386 10.8103 17.0637C10.8103 16.4889 10.3417 16.021 9.766 16.021ZM9.766 17.3951C9.58402 17.3951 9.43534 17.2466 9.43534 17.0649C9.43534 16.8832 9.58402 16.7348 9.766 16.7348C9.94798 16.7348 10.0967 16.8832 10.0967 17.0649C10.0967 17.2466 9.94798 17.3951 9.766 17.3951Z" fill="white"/>
<path d="M12.8671 14.1343C12.2914 14.1343 11.8228 14.6022 11.8228 15.177C11.8228 15.7518 12.2914 16.2198 12.8671 16.2198C13.4428 16.2198 13.9114 15.7518 13.9114 15.177C13.9114 14.6022 13.4428 14.1343 12.8671 14.1343ZM12.8671 15.5084C12.6851 15.5084 12.5364 15.3599 12.5364 15.1782C12.5364 14.9965 12.6851 14.848 12.8671 14.848C13.0491 14.848 13.1977 14.9965 13.1977 15.1782C13.1977 15.3599 13.0491 15.5084 12.8671 15.5084Z" fill="white"/>
<path d="M12.5912 12.0972C13.1669 12.0972 13.6355 11.6293 13.6355 11.0545C13.6355 10.4796 13.1669 10.0117 12.5912 10.0117C12.0155 10.0117 11.5469 10.4796 11.5469 11.0545C11.5469 11.6293 12.0155 12.0972 12.5912 12.0972ZM12.5912 10.7231C12.7732 10.7231 12.9219 10.8716 12.9219 11.0533C12.9219 11.235 12.7732 11.3834 12.5912 11.3834C12.4092 11.3834 12.2605 11.235 12.2605 11.0533C12.2605 10.8716 12.4092 10.7231 12.5912 10.7231Z" fill="white"/>
<path d="M15.3226 13.8667C14.747 13.8667 14.2783 14.3346 14.2783 14.9094C14.2783 15.4843 14.747 15.9522 15.3226 15.9522C15.8983 15.9522 16.367 15.4843 16.367 14.9094C16.367 14.3346 15.8983 13.8667 15.3226 13.8667ZM15.3226 15.2408C15.1407 15.2408 14.992 15.0923 14.992 14.9106C14.992 14.7289 15.1407 14.5805 15.3226 14.5805C15.5046 14.5805 15.6533 14.7289 15.6533 14.9106C15.6533 15.0923 15.5046 15.2408 15.3226 15.2408Z" fill="white"/>
</svg>
