<svg width="166" height="159" viewBox="0 0 166 159" fill="none" xmlns="http://www.w3.org/2000/svg">
<g clip-path="url(#clip0_648_1254)">
<path d="M8.48373 101.29C3.79586 101.29 0 97.4993 0 92.8173V55.2158C0 50.5338 3.79586 46.7427 8.48373 46.7427C13.1716 46.7427 16.9675 50.5338 16.9675 55.2158V92.8173C16.9675 97.4993 13.1716 101.29 8.48373 101.29Z" fill="#0A76BD"/>
<path d="M38.2883 142.814C33.6004 142.814 29.8046 139.023 29.8046 134.341V20.2241C29.8046 15.5421 33.6004 11.751 38.2883 11.751C42.9762 11.751 46.772 15.5421 46.772 20.2241V134.341C46.772 139.023 42.9762 142.814 38.2883 142.814Z" fill="#0A76BD"/>
<path d="M68.0977 120.614C63.4098 120.614 59.614 116.823 59.614 112.141V58.0869C59.614 53.4049 63.4098 49.6138 68.0977 49.6138C72.7856 49.6138 76.5814 53.4049 76.5814 58.0869V112.141C76.5814 116.823 72.7856 120.614 68.0977 120.614Z" fill="#0A76BD"/>
<path d="M97.9023 134.457C93.2144 134.457 89.4186 130.666 89.4186 125.984V35.6309C89.4186 30.9488 93.2144 27.1577 97.9023 27.1577C102.59 27.1577 106.386 30.9488 106.386 35.6309V125.984C106.386 130.666 102.59 134.457 97.9023 134.457Z" fill="#0A76BD"/>
<path d="M127.707 159C123.019 159 119.223 155.209 119.223 150.527V8.47316C119.223 3.79113 123.019 0 127.707 0C132.395 0 136.191 3.79113 136.191 8.47316V150.527C136.191 155.209 132.395 159 127.707 159Z" fill="#0A76BD"/>
<path d="M157.516 131.319C152.828 131.319 149.033 127.528 149.033 122.846V77.2798C149.033 72.5978 152.828 68.8066 157.516 68.8066C162.204 68.8066 166 72.5978 166 77.2798V122.846C166 127.528 162.204 131.319 157.516 131.319Z" fill="#0A76BD"/>
</g>
<defs>
<clipPath id="clip0_648_1254">
<rect width="166" height="159" fill="white"/>
</clipPath>
</defs>
</svg>
