<svg width="24" height="20" viewBox="0 0 24 20" fill="none" xmlns="http://www.w3.org/2000/svg">
<path d="M3.76662 16.0846C3.76662 15.3696 3.76282 14.6546 3.76988 13.9398C3.77124 13.7982 3.71628 13.7499 3.59368 13.7223C2.90163 13.5667 2.20967 13.4102 1.52025 13.2429C1.26455 13.1809 1.09278 12.998 0.968006 12.7631C0.680158 12.2214 0.459768 11.6509 0.297327 11.0582C0.0814638 10.2706 -0.0320817 9.46695 0.00793988 8.64691C0.0710509 7.3525 0.474617 6.1812 1.2228 5.13618C1.37203 4.9277 1.58834 4.83022 1.80493 4.72863C4.59838 3.41744 7.39184 2.10635 10.1853 0.795254C10.687 0.559746 11.1913 0.329922 11.6893 0.0864914C11.995 -0.0629033 12.2934 0.012493 12.5956 0.0805268C13.5446 0.294321 14.4938 0.507369 15.4423 0.723306C16.3464 0.929085 17.2494 1.13971 18.1535 1.34493C18.8847 1.51091 19.6175 1.67028 20.3489 1.83598C21.0901 2.00393 21.8303 2.17625 22.5711 2.34614C22.7587 2.3892 22.9473 2.42806 23.1345 2.47317C23.4979 2.56087 23.7534 2.84093 23.7998 3.19759C23.8521 3.6003 23.6942 3.93627 23.3484 4.12472C22.7761 4.43655 22.2005 4.74224 21.6251 5.04811C19.2068 6.33395 16.7861 7.61485 14.372 8.90907C14.0521 9.08056 13.7476 9.06527 13.4179 8.99183C12.7057 8.83331 11.9906 8.6881 11.277 8.5361C10.5833 8.38829 9.8902 8.23787 9.19643 8.09025C8.51253 7.94477 7.82827 7.80134 7.14419 7.65688C6.44517 7.50935 5.74624 7.36163 5.04722 7.21429C4.43259 7.08465 3.81778 6.95585 3.20315 6.82584C2.97506 6.77757 2.74526 6.73563 2.52061 6.67393C2.37646 6.63432 2.29877 6.67347 2.2314 6.80897C1.88751 7.50068 1.72507 8.23424 1.73322 9.00935C1.74227 9.87171 1.9355 10.692 2.27831 11.4755C2.30882 11.5453 2.38687 11.6219 2.45641 11.64C2.83399 11.7379 3.21682 11.8146 3.59585 11.9068C3.73774 11.9412 3.77115 11.8919 3.7687 11.7523C3.76191 11.3663 3.764 10.9799 3.7687 10.5938C3.77713 9.90787 4.17915 9.30004 4.80347 9.06033C4.93241 9.01085 5.09539 9.01057 5.2333 9.03797C6.05301 9.20115 6.87002 9.37841 7.68774 9.55232C8.31704 9.68624 8.9467 9.81849 9.57456 9.95922C9.804 10.0107 9.94706 10.1725 9.98917 10.4075C10.0289 10.6294 9.96218 10.8316 9.77321 10.9537C9.41746 11.1836 9.28462 11.5197 9.28462 11.9327C9.28481 13.0338 9.28399 14.135 9.28372 15.2361C9.28327 16.5878 9.28444 17.9394 9.2801 19.291C9.27973 19.419 9.27122 19.5585 9.22233 19.6726C9.06179 20.0468 8.60163 20.1114 8.30944 19.8085C7.93448 19.4197 7.56369 19.0268 7.19091 18.6359C6.94617 18.3791 6.69725 18.1263 6.45803 17.8644C6.36603 17.7637 6.29324 17.7493 6.17208 17.8208C5.66747 18.1192 5.15199 18.3981 4.64855 18.6985C4.20858 18.9609 3.7486 18.6484 3.76273 18.1666C3.78301 17.4731 3.76789 16.7786 3.76789 16.0845H3.76662V16.0846Z" fill="#CFD4DE"/>
<path d="M10.3676 13.4787C10.6088 13.5313 10.8449 13.5804 11.08 13.6346C11.7216 13.7825 12.3626 13.9326 13.004 14.0818C13.0435 14.091 13.0844 14.0958 13.1221 14.1099C13.2645 14.1629 13.3906 14.1439 13.5263 14.0663C15.693 12.8271 17.862 11.5921 20.0307 10.3566C20.6856 9.98343 21.3402 9.6098 21.9968 9.23962C22.4347 8.99274 22.948 9.13515 23.1828 9.56292C23.4247 10.0036 23.2837 10.5302 22.8371 10.7863C21.3347 11.6479 19.8287 12.5028 18.324 13.3601C16.8768 14.1847 15.4285 15.0068 13.9836 15.8355C13.7246 15.9842 13.461 16.0152 13.1783 15.9491C12.2759 15.7378 11.3735 15.5262 10.4702 15.319C10.3898 15.3005 10.3405 15.2781 10.3408 15.1835C10.3428 14.6463 10.342 14.109 10.3434 13.5716C10.3434 13.5476 10.3555 13.5235 10.3675 13.4787H10.3676Z" fill="#CFD4DE"/>
</svg>
